Financial and Insurance Industry
…
ttest_finance_all <- ttest_finance_all |>
  group_by(Year, outcome) |>
  mutate(
    p_adj = p.adjust(p.value, method = "bonferroni"),
    significant = p_adj < 0.05
  ) |>
  ungroup()

ttest_finance_all

# A tibble: 120 × 8
   group1 group2 p.value estimate outcome      Year p_adj significant
   <chr>  <chr>    <dbl>    <dbl> <chr>       <dbl> <dbl> <lgl>      
 1 Q2     Q1       0.373  -0.489  K6score      2024 1     FALSE      
 2 Q3     Q1       0.314  -0.456  K6score      2024 1     FALSE      
 3 Q3     Q2       0.949   0.0337 K6score      2024 1     FALSE      
 4 Q4     Q1       0.880   0.0745 K6score      2024 1     FALSE      
 5 Q4     Q2       0.313   0.564  K6score      2024 1     FALSE      
 6 Q4     Q3       0.253   0.530  K6score      2024 1     FALSE      
 7 Q2     Q1       0.793   0.0192 BAT12_total  2024 1     FALSE      
 8 Q3     Q1       0.316  -0.0604 BAT12_total  2024 1     FALSE      
 9 Q3     Q2       0.252  -0.0796 BAT12_total  2024 1     FALSE      
10 Q4     Q1       0.147   0.0955 BAT12_total  2024 0.880 FALSE      
# ℹ 110 more rows
…
