Phase2
…
age_summary <- itw_all |>
  filter(!is.na(age_group)) |>
  group_by(quarter, age_group) |>
  summarise(
    mean_f10 = mean(f10_1, na.rm = TRUE),
    n = sum(!is.na(f10_1)),
    .groups = "drop"
  )

age_summary

# A tibble: 48 × 4
   quarter age_group      mean_f10     n
   <chr>   <fct>             <dbl> <int>
 1 2024 Q1 18 to 24 years     5.82   254
 2 2024 Q1 25 to 34 years     5.71   572
 3 2024 Q1 35 to 44 years     5.42   812
 4 2024 Q1 45 to 54 years     4.92   736
 5 2024 Q1 55 to 64 years     4.30   545
 6 2024 Q1 65+ years          4.09   178
 7 2024 Q2 18 to 24 years     5.94   281
 8 2024 Q2 25 to 34 years     6.25   702
 9 2024 Q2 35 to 44 years     6.15   770
10 2024 Q2 45 to 54 years     5.62   633
# ℹ 38 more rows

age_phase2 <- age_summary |>
  left_join(abs_lci_2425, by = "quarter")

age_phase2

# A tibble: 48 × 5
   quarter age_group      mean_f10     n employee_lci
   <chr>   <fct>             <dbl> <int>        <dbl>
 1 2024 Q1 18 to 24 years     5.82   254         95.7
 2 2024 Q1 25 to 34 years     5.71   572         95.7
 3 2024 Q1 35 to 44 years     5.42   812         95.7
 4 2024 Q1 45 to 54 years     4.92   736         95.7
 5 2024 Q1 55 to 64 years     4.30   545         95.7
 6 2024 Q1 65+ years          4.09   178         95.7
 7 2024 Q2 18 to 24 years     5.94   281         96.9
 8 2024 Q2 25 to 34 years     6.25   702         96.9
 9 2024 Q2 35 to 44 years     6.15   770         96.9
10 2024 Q2 45 to 54 years     5.62   633         96.9
# ℹ 38 more rows
…
